<svg width="72" height="79" viewBox="0 0 72 79" fill="none" xmlns="http://www.w3.org/2000/svg">
<path d="M63.0127 64.3712C67.9559 61.5112 71 56.2332 71 50.5222L71 28.4778C71 22.7668 67.956 17.4888 63.0127 14.6288L44.0127 3.63591C39.0558 0.768011 32.9442 0.76801 27.9873 3.63591L8.98732 14.6288C4.04405 17.4888 1 22.7668 1 28.4778L0.999999 50.5222C0.999999 56.2332 4.04405 61.5112 8.98732 64.3712L27.9873 75.3641C32.9442 78.232 39.0558 78.232 44.0127 75.3641L63.0127 64.3712Z" stroke="#8175D1" stroke-miterlimit="10"/>
</svg>
